Notes on Longitudinal Data Analysis for Epidemiology - 3 Data Analysis
…
data_plot <- dplyr::left_join(data_by_cohort, soc_vars)

Joining with `by = join_by(id)`

Warning in dplyr::left_join(data_by_cohort, soc_vars): Detected an unexpected many-to-many relationship between `x` and `y`.
ℹ Row 1 of `x` matches multiple rows in `y`.
ℹ Row 1 of `y` matches multiple rows in `x`.
ℹ If a many-to-many relationship is expected, set `relationship =
  "many-to-many"` to silence this warning.

data_plot |> 
  mutate(WLK_TIME = (4/WLK_TIME))

# A tibble: 9,993 × 6
      id COHORT AGE_VALS WLK_TIME SOC_VALS                          SOC_VARS    
   <dbl> <chr>     <dbl>    <dbl> <dbl+lbl>                         <chr>       
 1 42595 COM          73    1.21  4 [Post-secondary degree/diploma] ED_UDR04_COM
 2 42595 COM          73    1.21  3 [Some post-secondary education] INC_TOT_COM 
 3 42595 COM          73    1.21  3 [Some post-secondary education] INC_PTOT_COM
 4 42595 COM          73    1.21  3 [Some post-secondary education] WEA_SVNGSVL…
 5 42595 COF1         76    0.957 4 [Post-secondary degree/diploma] ED_UDR04_COM
 6 42595 COF1         76    0.957 3 [Some post-secondary education] INC_TOT_COM 
 7 42595 COF1         76    0.957 3 [Some post-secondary education] INC_PTOT_COM
 8 42595 COF1         76    0.957 3 [Some post-secondary education] WEA_SVNGSVL…
 9 42595 COF2         79   NA     4 [Post-secondary degree/diploma] ED_UDR04_COM
10 42595 COF2         79   NA     3 [Some post-secondary education] INC_TOT_COM 
# ℹ 9,983 more rows
…
